1863520280;1665802597
616563794;838393152
458640658;1665802597
1863520284;1665802597
1802518250;1665802597
1376276589;1665802597
458640653;1665802597
1863520282;1665802597
2431986395;1665802597
450637037;1665802597
938523151;1665802597
291542750;1665802597
1863303306;838393152
3738891009;838393152
838495877;1665802597
1863230916;1665802597
427851197;838393152
905063305;1665802597
4231341761;1665802597
838495881;1665802597
1863525485;838393152
1753807137;1665802597
1863520278;1665802597
913282589;838393152
910549492;1665802597
458640642;1665802597
913282584;838393152
1863302856;838393152
838633203;1665802597
616563786;838393152
458640644;1665802597
458640643;1665802597
616563787;838393152
915435205;838393152
838495864;1665802597
838495861;838393152
458640640;1665802597
2645722771;838393152
1376300244;838393152
904024670;838393152
1753807127;1665802597
1753807124;1665802597
458640638;1665802597
1863520268;1665802597
938522777;838393152
915474420;838393152
913325557;838393152
458640633;1665802597
913282597;838393152
458640632;1665802597
915472399;838393152
458640636;1665802597
2704184446;838393152
910450687;1665802597
939091136;1665802597
915474007;838393152
1665802584;1665802597
905063553;1665802597
3171969277;838393152
905282713;1665802597
458640629;1665802597
458640628;1665802597
1763009606;1665802597
938524739;838393152
1863231144;1665802597
1524403132;1665802597
838801827;1665802597
838495888;1665802597
1524403130;1665802597
1863230908;1665802597
1753807100;1665802597
916416185;838393152
1524403125;1665802597
450632577;1665802597
939091128;1665802597
1863231349;1665802597
938409480;1665802597
2958094334;838393152
838801816;1665802597
838835320;1665802597
938409451;1665802597
1863231134;838393152
838835326;1665802597
1803838867;1665802597
938409455;1665802597
458640696;1665802597
939091191;1665802597
913325567;838393152
943749090;838393152
566394999;1665802597
838835311;1665802597
450632353;1665802597
913282544;838393152
458640685;1665802597
838835319;1665802597
915433625;838393152
915433592;838393152
2511131238;838393152
4233044629;838393152
2511131235;838393152
915432393;838393152
1870091999;838393152
458631458;838393152
458631457;1665802597
1863303325;838393152
838835341;1665802597
1863302863;838393152
1863520262;1665802597
915433175;838393152
938409433;1665802597
913325596;838393152
915434225;838393152
1863231112;1665802597
943641257;838393152
915433622;838393152
915432363;838393152
915432361;838393152
938523160;1665802597
938523162;1665802597
943749079;838393152
938522515;838393152
913233571;838393152
913325582;1665802597
913282568;838393152
914641739;838393152
1863231387;1665802597
1863231386;838393152
910450838;1665802597
1863303320;838393152
2722903102;1665802597
910450616;1665802597
918296443;838393152
3738902434;838393152
450636275;838393152
838801663;1665802597
962967520;838393152
2702568913;1665802597
2702568911;1665802597
458631477;1665802597
905063392;1665802597
458631470;1665802597
432874023;838393152
938409413;1665802597
838633475;1665802597
913282305;838393152
2723849268;838393152
838633289;1665802597
938622518;1665802597
2511131272;838393152
3268615167;838393152
3268615168;1665802597
2432378734;1665802597
1809842370;1665802597
913282500;838393152
962967595;838393152
2511131261;838393152
3004653927;838393152
2511131260;838393152
1863303168;838393152
883993834;1665802597
918296468;838393152
1863303372;838393152
913282330;838393152
3268615172;1665802597
3268615170;1665802597
883993832;1665802597
905281870;1665802597
905063367;1665802597
904024499;838393152
450638758;838393152
616563732;838393152
913486795;838393152
943749040;838393152
1809842360;838393152
1863303171;838393152
1863303176;838393152
943749467;838393152
938622300;1665802597
1863303157;838393152
913282112;838393152
3738902426;838393152
938622301;1665802597
2511131257;838393152
918296458;838393152
2702568907;1665802597
943749038;838393152
1740172271;1665802597
962967539;838393152
2517407770;838393152
943749238;838393152
2507991831;838393152
918296460;838393152
1863303166;838393152
1863303149;838393152
905063348;1665802597
566394246;838393152
566394243;1665802597
1863303153;838393152
913282343;838393152
914637449;838393152
962967560;838393152
916415547;838393152
1762944954;1665802597
616563739;838393152
905063547;1665802597
913486712;838393152
905063542;1665802597
913282340;838393152
918139451;838393152
915474016;838393152
1863303142;838393152
918296674;838393152
915474022;838393152
913282332;838393152
3735852209;1665802597
616563742;838393152
616563740;838393152
838801692;1665802597
918296427;838393152
4229441351;838393152
4229441350;838393152
432874009;838393152
4229441353;838393152
4229441355;838393152
432874004;1665802597
4229441354;838393152
943640520;838393152
916415368;838393152
4229441356;838393152
938622555;838393152
1863231197;1665802597
1863521392;838393152
943749271;838393152
1863231193;1665802597
913282361;1665802597
308722765;1665802597
905063118;1665802597
1849573429;1665802597
914641930;838393152
838801679;1665802597
943749412;838393152
616563764;838393152
560829685;838393152
914643075;838393152
560828945;1665802597
910451028;1665802597
938524403;1665802597
1863525882;838393152
1411101724;838393152
1809842411;838393152
914643887;838393152
944888909;1665802597
913282264;838393152
450636716;1665802597
939086479;1665802597
939086478;1665802597
914643088;838393152
905285018;1665802597
566394569;838393152
4218702281;1665802597
1411101737;838393152
944888923;1665802597
913282275;838393152
915436742;838393152
938522381;1665802597
915436745;838393152
915436729;838393152
914643458;838393152
915436727;838393152
913282279;838393152
913282278;838393152
938522358;838393152
1411101709;838393152
1411101708;838393152
838633347;1665802597
3698558623;1665802597
939086455;1665802597
915436734;838393152
939086453;1665802597
916415086;838393152
906856589;1665802597
939086471;1665802597
910451034;1665802597
1863521664;838393152
944888945;1665802597
913282292;838393152
939086466;1665802597
939086464;1665802597
2722903090;1665802597
938524448;838393152
1809842454;838393152
4229557842;838393152
308720476;1665802597
1863526013;838393152
2508000040;838393152
914644214;838393152
1863526009;838393152
915436793;838393152
944889399;1665802597
2823075783;838393152
1395838316;1665802597
1395838315;1665802597
1825246021;838393152
1825246020;838393152
914644201;838393152
1863521409;1665802597
2127433987;1665802597
944889369;1665802597
938524420;1665802597
913325818;838393152
1863525196;838393152
938524424;838393152
1395838343;1665802597
915436769;838393152
267250972;1665802597
267250973;1665802597
2211543269;1665802597
2211543268;1665802597
943641062;1665802597
939086497;1665802597
1668996788;1665802597
566395298;1665802597
938524010;1665802597
566395296;1665802597
1863521625;838393152
1809842443;838393152
1395838339;1665802597
560826996;838393152
1395838330;1665802597
2211543266;1665802597
4229557838;838393152
938409716;1665802597
2211543267;1665802597
267250981;1665802597
2211543258;1665802597
1863230890;1665802597
938524023;838393152
1668996793;1665802597
1668996795;1665802597
450638389;838393152
938524409;838393152
4231714014;838393152
938522954;838393152
913325846;838393152
1825246057;838393152
1863230889;1665802597
938522588;1665802597
938522589;1665802597
915432733;838393152
569682586;838393152
458631522;838393152
838835359;1665802597
427851224;838393152
938524489;1665802597
838633164;1665802597
4061305247;838393152
291542967;1665802597
4061305246;838393152
1863520319;1665802597
1863230879;1665802597
913325649;838393152
267197831;1665802597
2001957709;838393152
1863525806;838393152
2001957705;838393152
249786899;1665802597
2001957712;838393152
938524471;838393152
914643404;838393152
427851234;838393152
267247458;1665802597
904024711;838393152
267247457;1665802597
906772272;1665802597
267247456;1665802597
838835363;1665802597
938522951;1665802597
913325848;838393152
1863520326;1665802597
913325867;838393152
2945827921;838393152
915432291;838393152
291542986;1665802597
1863520324;1665802597
560829527;838393152
2001957742;838393152
427851205;838393152
1645501137;838393152
291542988;1665802597
2504978812;838393152
915432325;838393152
915433526;838393152
838633185;1665802597
938522980;1665802597
1645501153;838393152
1863520338;1665802597
1863230857;1665802597
938524449;838393152
1753807193;1665802597
915432283;838393152
915432324;838393152
914637342;838393152
4231714007;838393152
913325871;838393152
939091095;1665802597
2001957737;838393152
249791143;1665802597
249791141;1665802597
838835385;1665802597
1863302789;1665802597
291542978;1665802597
838835388;1665802597
838835389;1665802597
915432318;838393152
838835386;1665802597
938524457;1665802597
1863302785;838393152
938524722;1665802597
1349092028;838393152
939086432;1665802597
914636975;838393152
939086438;1665802597
2967562700;838393152
938523863;1665802597
1753807161;1665802597
3648521278;838393152
915433309;838393152
1753807163;1665802597
1863520592;1665802597
2507994522;838393152
938372476;1665802597
910451258;1665802597
427851261;838393152
1645501116;838393152
3648521280;838393152
2111354728;838393152
2911006658;838393152
938524715;838393152
1349092014;1665802597
915472695;838393152
1863230830;1665802597
308723214;1665802597
962967606;838393152
938523871;838393152
2945828442;838393152
915433518;838393152
2504978800;838393152
267196320;1665802597
938524705;838393152
1753807146;1665802597
938522394;838393152
1753807148;1665802597
291542746;1665802597
913325618;838393152
291542749;1665802597
3661513066;1665802597
1863231301;1665802597
938522395;838393152
913325620;838393152
1411101747;838393152
291542741;1665802597
1411101749;838393152
427851241;838393152
914641536;838393152
915473933;838393152
910451486;1665802597
939086427;1665802597
1863231313;1665802597
1869716945;1665802597
1863231312;1665802597
450633776;838393152
1863525871;838393152
928492447;1665802597
1863230819;1665802597
427851255;838393152
1863525663;838393152
1411101750;838393152
915474521;838393152
1645501109;838393152
1411101753;838393152
938524492;1665802597
568360048;838393152
568360049;838393152
838393190;838393152
249237060;838393152
838393192;838393152
938622665;1665802597
1863231231;1665802597
913486202;838393152
249237069;838393152
2958594848;838393152
2958594851;838393152
913233869;838393152
838393181;838393152
267074522;1665802597
566394190;838393152
308723081;1665802597
915434354;838393152
308723085;1665802597
913282491;838393152
1863303009;838393152
2657888887;1665802597
913282495;838393152
915433493;838393152
2958594858;838393152
568360027;838393152
838495996;1665802597
568360020;838393152
838495999;838393152
1376300357;838393152
913282459;838393152
1763864248;1665802597
2001957754;838393152
939091032;1665802597
939351628;1665802597
1863230931;1665802597
2001957752;838393152
914642883;838393152
915432903;838393152
1873280867;838393152
1873280866;838393152
914641205;838393152
2001957750;838393152
914637510;838393152
2126302773;838393152
1863303034;838393152
568360030;838393152
1863520391;1665802597
914637036;838393152
1763864242;1665802597
560830602;838393152
938524645;838393152
914642896;838393152
938523066;1665802597
1413863725;838393152
1863303216;838393152
938372513;1665802597
938622286;1665802597
1863231246;1665802597
914637260;838393152
1863303042;838393152
1309626316;1665802597
915434106;838393152
938524647;1665802597
938524648;1665802597
914636606;838393152
267074554;1665802597
838495971;1665802597
267074553;1665802597
450631313;1665802597
560827590;838393152
1863302942;838393152
1863231552;838393152
1863231553;838393152
1863230991;838393152
939091050;1665802597
1863230993;1665802597
1863231274;1665802597
1863231276;1665802597
458640757;838393152
1863231275;1665802597
1863231278;1665802597
267074560;1665802597
1753807082;1665802597
913282443;838393152
918296784;838393152
2961579581;838393152
560827592;838393152
855724055;838393152
838495964;838393152
1309626321;1665802597
838495962;1665802597
267074565;1665802597
560829726;838393152
838801708;1665802597
838801709;1665802597
1863231263;838393152
938524666;838393152
1863302955;838393152
1863303047;838393152
1863302958;838393152
914637251;838393152
3908908655;838393152
838495958;838393152
1863520153;1665802597
938522409;838393152
913282411;838393152
1863303063;838393152
560829715;838393152
838495952;838393152
838495956;838393152
915433489;838393152
915436689;838393152
1863302961;838393152
938522606;1665802597
1863520514;1665802597
1863230972;1665802597
938409583;1665802597
1863231291;1665802597
915435503;838393152
1870092008;838393152
1870092006;838393152
1825245998;838393152
1825245997;838393152
1825245996;838393152
1870092001;838393152
938409588;1665802597
838801734;1665802597
913282427;838393152
1668996806;1665802597
838801733;1665802597
3268565119;838393152
838495943;1665802597
915472330;838393152
1863231289;1665802597
560827168;838393152
1863231288;1665802597
1825245999;838393152
938524685;838393152
1863231286;1665802597
1863231283;1665802597
560827166;838393152
938524695;1665802597
914644862;838393152
2969951369;1665802597
838801766;1665802597
838801764;1665802597
1873281080;838393152
1873281087;838393152
308719788;1665802597
918296546;838393152
1863302909;838393152
1873281089;838393152
838495938;1665802597
458640708;1665802597
905284396;1665802597
905283925;1665802597
838495935;1665802597
2969951374;1665802597
2969951375;1665802597
905063232;1665802597
1863302917;838393152
913282602;838393152
458640700;1665802597
943749333;838393152
2969951378;1665802597
2969951377;1665802597
915436677;838393152
913486092;838393152
838495921;1665802597
1863303283;838393152
1863303285;838393152
838801756;1665802597
838801759;1665802597
838495928;1665802597
915433294;838393152
915433915;838393152
458640736;838393152
943749140;838393152
1863302922;838393152
1863302924;838393152
938524085;1665802597
918296523;838393152
914644685;838393152
938622410;1665802597
838393122;838393152
458640724;838393152
1863302939;838393152
938524079;1665802597
938524070;1665802597
308719791;1665802597
943640690;838393152
905062937;1665802597
1863303299;838393152
838801778;1665802597
943749315;838393152
944889345;1665802597
2505035602;838393152
838801777;1665802597
838495903;1665802597
838801770;1665802597
838495904;1665802597
838801773;1665802597
913081225;838393152
1863303246;838393152
1809842485;838393152
915436031;838393152
905062945;1665802597
838393150;838393152
838393153;838393152
395135106;1665802597
4229634057;838393152
913282246;838393152
1873281043;838393152
944888867;1665802597
1863303238;838393152
1809842478;1665802597
3735861926;1665802597
4229634052;838393152
1762945102;1665802597
2694863487;838393152
4229634053;838393152
915436029;838393152
616563691;838393152
915436805;838393152
2694863479;838393152
918296579;838393152
838801792;1665802597
616563694;838393152
3735861938;1665802597
913282614;838393152
1763864297;1665802597
905062962;1665802597
905063030;1665802597
838393173;838393152
915433955;838393152
838393168;838393152
838393169;838393152
1524403084;1665802597
3735861932;1665802597
1863525208;838393152
1800542361;1665802597
915436833;838393152
395135138;1665802597
905063211;1665802597
938523225;838393152
838393159;838393152
905063012;1665802597
1863303262;838393152
1873281052;838393152
1863525278;838393152
1645501060;838393152
913325701;838393152
905063032;1665802597
267251591;1665802597
939086576;1665802597
267251592;1665802597
939086578;1665802597
267251590;1665802597
267251595;1665802597
943640793;1665802597
450637597;1665802597
1863525509;838393152
904024800;838393152
838633449;1665802597
1645501075;838393152
4229893881;838393152
905063052;1665802597
267251583;1665802597
267251584;1665802597
2622332859;838393152
267251587;1665802597
267251588;1665802597
2622332858;838393152
1645501066;838393152
913282135;838393152
2702748552;838393152
938524117;1665802597
2127664389;838393152
2694863464;838393152
938524112;1665802597
943684568;838393152
2702748544;838393152
1863525759;838393152
915473578;1665802597
1863525240;838393152
838633634;1665802597
3268564867;838393152
1803838672;1665802597
3067838002;1665802597
1395834915;838393152
1395834916;838393152
2694863446;838393152
974362888;1665802597
1395834913;838393152
938523907;1665802597
1863525765;838393152
913282153;838393152
914531696;838393152
905283084;1665802597
838633431;1665802597
943684553;838393152
560825120;838393152
943641180;838393152
450639208;1665802597
918296615;838393152
910451127;1665802597
560825127;838393152
560825126;838393152
938524544;1665802597
906856452;1665802597
2940370438;838393152
944889241;1665802597
915432604;838393152
1809842316;1665802597
906856457;1665802597
938524133;1665802597
1863302436;1665802597
915432896;838393152
450633464;838393152
838633406;1665802597
2939969321;838393152
1863302438;1665802597
838633411;1665802597
1803838648;1665802597
1863302440;1665802597
938524147;838393152
938524561;838393152
2327497317;838393152
1668978741;1665802597
1668978742;1665802597
2327497319;838393152
2823075894;838393152
1863525995;838393152
914642478;838393152
1809842330;838393152
938524565;838393152
1809842336;838393152
943640771;838393152
938524156;838393152
560825111;838393152
918296602;838393152
918296608;838393152
943749104;838393152
938409613;1665802597
3735754812;838393152
938409610;1665802597
944889277;1665802597
1809842341;1665802597
2939969347;838393152
938524557;838393152
250075222;838393152
943749369;838393152
838393203;838393152
560825530;838393152
2592537221;838393152
1869899525;838393152
1869899526;838393152
838393207;838393152
914643317;838393152
838393217;838393152
561316958;1665802597
1863520442;1665802597
1669002240;1665802597
938522440;1665802597
914642832;838393152
2657888927;838393152
1669002247;1665802597
838393216;838393152
2657888925;838393152
3648453039;838393152
938522863;838393152
2939969357;838393152
1975594397;1665802597
3738891010;838393152
560829404;838393152
838835431;1665802597
569682682;1665802597
3648453032;838393152
943641155;1665802597
561316947;1665802597
914642016;838393152
1863525703;838393152
2657888917;838393152
4090314577;1665802597
938522848;838393152
943640724;838393152
3615428557;838393152
1873280927;838393152
938524579;838393152
3615428561;838393152
944889007;1665802597
4211898257;1665802597
938524572;1665802597
1863303084;838393152
561316977;838393152
561316976;838393152
915432855;838393152
2825982087;838393152
2825982086;838393152
914642023;838393152
1863230760;1665802597
906856438;1665802597
915472252;838393152
267197967;1665802597
943640734;1665802597
838393238;838393152
943748954;838393152
1870091981;1665802597
915432473;838393152
938523977;1665802597
939086519;1665802597
250075250;1665802597
1805872683;1665802597
267197961;1665802597
1863525951;838393152
910451334;1665802597
267197959;1665802597
1863525958;838393152
2957089969;838393152
938522454;838393152
938372583;1665802597
1870091975;1665802597
915433445;838393152
1870091978;1665802597
1870091979;1665802597
943640943;838393152
1863525961;838393152
1863525962;838393152
910451348;1665802597
1863230759;1665802597
1309626331;1665802597
938522831;838393152
918296838;838393152
1863525966;838393152
913325772;838393152
1763009595;1665802597
913325770;838393152
2957089976;838393152
2957089977;838393152
267197985;1665802597
267197986;1665802597
939351675;1665802597
1863230700;1665802597
267197983;1665802597
938522898;1665802597
560825793;838393152
906856657;1665802597
915472523;838393152
944889058;1665802597
1863525933;838393152
3615428591;838393152
560825787;838393152
267197973;1665802597
267197975;1665802597
1863520497;1665802597
267197976;1665802597
939086544;1665802597
2957089996;838393152
939086540;1665802597
939086541;1665802597
3648453064;838393152
3648453067;838393152
3648453069;838393152
915474408;838393152
838835403;1665802597
838835402;1665802597
938409674;1665802597
913325755;838393152
838835406;1665802597
2823075817;838393152
2722903119;1665802597
1669002267;1665802597
267251576;1665802597
913325716;838393152
938523932;838393152
267251575;1665802597
915432818;838393152
1863231208;838393152
913282392;838393152
938524360;838393152
915432814;838393152
939086556;1665802597
561316937;1665802597
2825982044;838393152
1863525091;838393152
2825982045;838393152
1863525326;838393152
569682660;1665802597
938522881;1665802597
938522884;1665802597
838835414;1665802597
1645501047;838393152
943684513;838393152
1645501046;838393152
3615428579;838393152
3615428578;838393152
938523946;838393152
943684511;838393152
938523944;838393152
1411101698;838393152
938522496;838393152
914641630;838393152
450635536;838393152
938522495;838393152
2825982031;838393152
3735861419;1665802597
1669002253;1665802597
939086567;1665802597
2504970896;838393152
569682650;1665802597
838835420;1665802597
2212031059;1665802597
2212031053;1665802597
2212031054;1665802597
1873280945;838393152
943684505;838393152
943684508;838393152